toplayicidisplay/simulation/qsim/toplayicidisplay.msim.vcd
$comment
	File created using the following command:
		vcd file toplayicidisplay.msim.vcd -direction
$end
$date
	Thu Jun 04 22:28:46 2020
$end
$version
	ModelSim Version 10.1d
$end
$timescale
	1ps
$end
$scope module toplayicidisplay_vlg_vec_tst $end
$var reg 1 ! A0 $end
$var reg 1 " A1 $end
$var reg 1 # A2 $end
$var reg 1 $ A3 $end
$var reg 1 % B0 $end
$var reg 1 & B1 $end
$var reg 1 ' B2 $end
$var reg 1 ( B3 $end
$var wire 1 ) leds [7] $end
$var wire 1 * leds [6] $end
$var wire 1 + leds [5] $end
$var wire 1 , leds [4] $end
$var wire 1 - leds [3] $end
$var wire 1 . leds [2] $end
$var wire 1 / leds [1] $end
$var wire 1 0 sampler $end
$scope module i1 $end
$var wire 1 1 gnd $end
$var wire 1 2 vcc $end
$var wire 1 3 unknown $end
$var tri1 1 4 devclrn $end
$var tri1 1 5 devpor $end
$var tri1 1 6 devoe $end
$var wire 1 7 B1~combout $end
$var wire 1 8 A3~combout $end
$var wire 1 9 A1~combout $end
$var wire 1 : A0~combout $end
$var wire 1 ; B0~combout $end
$var wire 1 < inst1|inst15~0_combout $end
$var wire 1 = B2~combout $end
$var wire 1 > A2~combout $end
$var wire 1 ? inst1|inst11~0_combout $end
$var wire 1 @ inst1|inst14~0_combout $end
$var wire 1 A B3~combout $end
$var wire 1 B inst1|inst5~0_combout $end
$var wire 1 C inst1|inst5~combout $end
$var wire 1 D inst1|inst21~combout $end
$var wire 1 E inst|Mux6~0_combout $end
$var wire 1 F inst|Mux5~0_combout $end
$var wire 1 G inst|Mux4~0_combout $end
$var wire 1 H inst|Mux3~0_combout $end
$var wire 1 I inst|Mux2~0_combout $end
$var wire 1 J inst|Mux1~0_combout $end
$var wire 1 K inst|Mux0~0_combout $end
$upscope $end
$upscope $end
$enddefinitions $end
#0
$dumpvars
0!
1"
0#
1$
0%
1&
1'
1(
0/
0.
0-
0,
0+
0*
0)
x0
01
12
x3
14
15
16
17
18
19
0:
0;
1<
1=
0>
0?
0@
1A
0B
1C
0D
1E
0F
0G
0H
0I
0J
0K
$end
#10000
1!
0"
1#
0$
1%
0&
0'
0(
1:
09
1>
08
1;
07
0=
0A
00
1@
0<
1B
0C
1I
1F
0B
1?
1C
0C
1K
1J
1H
1G
0E
1-
1*
0I
0H
0G
0F
1E
1/
1.
1,
1+
1)
0-
0,
0+
0*
0)
#20000
0!
1"
0#
1$
0%
1&
1'
1(
0:
19
0>
18
0;
17
1=
1A
10
0@
1<
1B
1C
1I
1H
1G
1F
0E
0B
0?
0C
1C
0K
0J
0I
0H
0G
0F
1-
1,
1+
1*
1)
1E
0/
0.
0-
0,
0+
0*
0)
#30000
1!
0"
1#
0$
1%
0&
0'
0(
1:
09
1>
08
1;
07
0=
0A
00
1@
0<
1B
0C
1I
1F
0B
1?
1C
0C
1K
1J
1H
1G
0E
1-
1*
0I
0H
0G
0F
1E
1/
1.
1,
1+
1)
0-
0,
0+
0*
0)
#40000
0!
1"
0#
1$
0%
1&
1'
1(
0:
19
0>
18
0;
17
1=
1A
10
0@
1<
1B
1C
1I
1H
1G
1F
0E
0B
0?
0C
1C
0K
0J
0I
0H
0G
0F
1-
1,
1+
1*
1)
1E
0/
0.
0-
0,
0+
0*
0)
#50000
1!
0"
1#
0$
1%
0&
0'
0(
1:
09
1>
08
1;
07
0=
0A
00
1@
0<
1B
0C
1I
1F
0B
1?
1C
0C
1K
1J
1H
1G
0E
1-
1*
0I
0H
0G
0F
1E
1/
1.
1,
1+
1)
0-
0,
0+
0*
0)
#60000
0!
1"
0#
1$
0%
1&
1'
1(
0:
19
0>
18
0;
17
1=
1A
10
0@
1<
1B
1C
1I
1H
1G
1F
0E
0B
0?
0C
1C
0K
0J
0I
0H
0G
0F
1-
1,
1+
1*
1)
1E
0/
0.
0-
0,
0+
0*
0)
#70000
1!
0"
1#
0$
1%
0&
0'
0(
1:
09
1>
08
1;
07
0=
0A
00
1@
0<
1B
0C
1I
1F
0B
1?
1C
0C
1K
1J
1H
1G
0E
1-
1*
0I
0H
0G
0F
1E
1/
1.
1,
1+
1)
0-
0,
0+
0*
0)
#80000
0!
1"
0#
1$
0%
1&
1'
1(
0:
19
0>
18
0;
17
1=
1A
10
0@
1<
1B
1C
1I
1H
1G
1F
0E
0B
0?
0C
1C
0K
0J
0I
0H
0G
0F
1-
1,
1+
1*
1)
1E
0/
0.
0-
0,
0+
0*
0)
#90000
1!
0"
1#
0$
1%
0&
0'
0(
1:
09
1>
08
1;
07
0=
0A
00
1@
0<
1B
0C
1I
1F
0B
1?
1C
0C
1K
1J
1H
1G
0E
1-
1*
0I
0H
0G
0F
1E
1/
1.
1,
1+
1)
0-
0,
0+
0*
0)
#100000
0!
1"
0#
1$
0%
1&
1'
1(
0:
19
0>
18
0;
17
1=
1A
10
0@
1<
1B
1C
1I
1H
1G
1F
0E
0B
0?
0C
1C
0K
0J
0I
0H
0G
0F
1-
1,
1+
1*
1)
1E
0/
0.
0-
0,
0+
0*
0)
#110000
1!
0"
1#
0$
1%
0&
0'
0(
1:
09
1>
08
1;
07
0=
0A
00
1@
0<
1B
0C
1I
1F
0B
1?
1C
0C
1K
1J
1H
1G
0E
1-
1*
0I
0H
0G
0F
1E
1/
1.
1,
1+
1)
0-
0,
0+
0*
0)
#120000
0!
1"
0#
1$
0%
1&
1'
1(
0:
19
0>
18
0;
17
1=
1A
10
0@
1<
1B
1C
1I
1H
1G
1F
0E
0B
0?
0C
1C
0K
0J
0I
0H
0G
0F
1-
1,
1+
1*
1)
1E
0/
0.
0-
0,
0+
0*
0)
#130000
1!
0"
1#
0$
1%
0&
0'
0(
1:
09
1>
08
1;
07
0=
0A
00
1@
0<
1B
0C
1I
1F
0B
1?
1C
0C
1K
1J
1H
1G
0E
1-
1*
0I
0H
0G
0F
1E
1/
1.
1,
1+
1)
0-
0,
0+
0*
0)
#140000
0!
1"
0#
1$
0%
1&
1'
1(
0:
19
0>
18
0;
17
1=
1A
10
0@
1<
1B
1C
1I
1H
1G
1F
0E
0B
0?
0C
1C
0K
0J
0I
0H
0G
0F
1-
1,
1+
1*
1)
1E
0/
0.
0-
0,
0+
0*
0)
#150000
1!
0"
1#
0$
1%
0&
0'
0(
1:
09
1>
08
1;
07
0=
0A
00
1@
0<
1B
0C
1I
1F
0B
1?
1C
0C
1K
1J
1H
1G
0E
1-
1*
0I
0H
0G
0F
1E
1/
1.
1,
1+
1)
0-
0,
0+
0*
0)
#160000
0!
1"
0#
1$
0%
1&
1'
1(
0:
19
0>
18
0;
17
1=
1A
10
0@
1<
1B
1C
1I
1H
1G
1F
0E
0B
0?
0C
1C
0K
0J
0I
0H
0G
0F
1-
1,
1+
1*
1)
1E
0/
0.
0-
0,
0+
0*
0)
#170000
1!
0"
1#
0$
1%
0&
0'
0(
1:
09
1>
08
1;
07
0=
0A
00
1@
0<
1B
0C
1I
1F
0B
1?
1C
0C
1K
1J
1H
1G
0E
1-
1*
0I
0H
0G
0F
1E
1/
1.
1,
1+
1)
0-
0,
0+
0*
0)
#180000
0!
1"
0#
1$
0%
1&
1'
1(
0:
19
0>
18
0;
17
1=
1A
10
0@
1<
1B
1C
1I
1H
1G
1F
0E
0B
0?
0C
1C
0K
0J
0I
0H
0G
0F
1-
1,
1+
1*
1)
1E
0/
0.
0-
0,
0+
0*
0)
#190000
1!
0"
1#
0$
1%
0&
0'
0(
1:
09
1>
08
1;
07
0=
0A
00
1@
0<
1B
0C
1I
1F
0B
1?
1C
0C
1K
1J
1H
1G
0E
1-
1*
0I
0H
0G
0F
1E
1/
1.
1,
1+
1)
0-
0,
0+
0*
0)
#200000
0!
1"
0#
1$
0%
1&
1'
1(
0:
19
0>
18
0;
17
1=
1A
10
0@
1<
1B
1C
1I
1H
1G
1F
0E
0B
0?
0C
1C
0K
0J
0I
0H
0G
0F
1-
1,
1+
1*
1)
1E
0/
0.
0-
0,
0+
0*
0)
#210000
1!
0"
1#
0$
1%
0&
0'
0(
1:
09
1>
08
1;
07
0=
0A
00
1@
0<
1B
0C
1I
1F
0B
1?
1C
0C
1K
1J
1H
1G
0E
1-
1*
0I
0H
0G
0F
1E
1/
1.
1,
1+
1)
0-
0,
0+
0*
0)
#220000
0!
1"
0#
1$
0%
1&
1'
1(
0:
19
0>
18
0;
17
1=
1A
10
0@
1<
1B
1C
1I
1H
1G
1F
0E
0B
0?
0C
1C
0K
0J
0I
0H
0G
0F
1-
1,
1+
1*
1)
1E
0/
0.
0-
0,
0+
0*
0)
#230000
1!
0"
1#
0$
1%
0&
0'
0(
1:
09
1>
08
1;
07
0=
0A
00
1@
0<
1B
0C
1I
1F
0B
1?
1C
0C
1K
1J
1H
1G
0E
1-
1*
0I
0H
0G
0F
1E
1/
1.
1,
1+
1)
0-
0,
0+
0*
0)
#240000
0!
1"
0#
1$
0%
1&
1'
1(
0:
19
0>
18
0;
17
1=
1A
10
0@
1<
1B
1C
1I
1H
1G
1F
0E
0B
0?
0C
1C
0K
0J
0I
0H
0G
0F
1-
1,
1+
1*
1)
1E
0/
0.
0-
0,
0+
0*
0)
#250000
1!
0"
1#
0$
1%
0&
0'
0(
1:
09
1>
08
1;
07
0=
0A
00
1@
0<
1B
0C
1I
1F
0B
1?
1C
0C
1K
1J
1H
1G
0E
1-
1*
0I
0H
0G
0F
1E
1/
1.
1,
1+
1)
0-
0,
0+
0*
0)
#260000
0!
1"
0#
1$
0%
1&
1'
1(
0:
19
0>
18
0;
17
1=
1A
10
0@
1<
1B
1C
1I
1H
1G
1F
0E
0B
0?
0C
1C
0K
0J
0I
0H
0G
0F
1-
1,
1+
1*
1)
1E
0/
0.
0-
0,
0+
0*
0)
#270000
1!
0"
1#
0$
1%
0&
0'
0(
1:
09
1>
08
1;
07
0=
0A
00
1@
0<
1B
0C
1I
1F
0B
1?
1C
0C
1K
1J
1H
1G
0E
1-
1*
0I
0H
0G
0F
1E
1/
1.
1,
1+
1)
0-
0,
0+
0*
0)
#280000
0!
1"
0#
1$
0%
1&
1'
1(
0:
19
0>
18
0;
17
1=
1A
10
0@
1<
1B
1C
1I
1H
1G
1F
0E
0B
0?
0C
1C
0K
0J
0I
0H
0G
0F
1-
1,
1+
1*
1)
1E
0/
0.
0-
0,
0+
0*
0)
#290000
1!
0"
1#
0$
1%
0&
0'
0(
1:
09
1>
08
1;
07
0=
0A
00
1@
0<
1B
0C
1I
1F
0B
1?
1C
0C
1K
1J
1H
1G
0E
1-
1*
0I
0H
0G
0F
1E
1/
1.
1,
1+
1)
0-
0,
0+
0*
0)
#300000
0!
1"
0#
1$
0%
1&
1'
1(
0:
19
0>
18
0;
17
1=
1A
10
0@
1<
1B
1C
1I
1H
1G
1F
0E
0B
0?
0C
1C
0K
0J
0I
0H
0G
0F
1-
1,
1+
1*
1)
1E
0/
0.
0-
0,
0+
0*
0)
#310000
1!
0"
1#
0$
1%
0&
0'
0(
1:
09
1>
08
1;
07
0=
0A
00
1@
0<
1B
0C
1I
1F
0B
1?
1C
0C
1K
1J
1H
1G
0E
1-
1*
0I
0H
0G
0F
1E
1/
1.
1,
1+
1)
0-
0,
0+
0*
0)
#320000
0!
1"
0#
1$
0%
1&
1'
1(
0:
19
0>
18
0;
17
1=
1A
10
0@
1<
1B
1C
1I
1H
1G
1F
0E
0B
0?
0C
1C
0K
0J
0I
0H
0G
0F
1-
1,
1+
1*
1)
1E
0/
0.
0-
0,
0+
0*
0)
#330000
1!
0"
1#
0$
1%
0&
0'
0(
1:
09
1>
08
1;
07
0=
0A
00
1@
0<
1B
0C
1I
1F
0B
1?
1C
0C
1K
1J
1H
1G
0E
1-
1*
0I
0H
0G
0F
1E
1/
1.
1,
1+
1)
0-
0,
0+
0*
0)
#340000
0!
1"
0#
1$
0%
1&
1'
1(
0:
19
0>
18
0;
17
1=
1A
10
0@
1<
1B
1C
1I
1H
1G
1F
0E
0B
0?
0C
1C
0K
0J
0I
0H
0G
0F
1-
1,
1+
1*
1)
1E
0/
0.
0-
0,
0+
0*
0)
#350000
1!
0"
1#
0$
1%
0&
0'
0(
1:
09
1>
08
1;
07
0=
0A
00
1@
0<
1B
0C
1I
1F
0B
1?
1C
0C
1K
1J
1H
1G
0E
1-
1*
0I
0H
0G
0F
1E
1/
1.
1,
1+
1)
0-
0,
0+
0*
0)
#360000
0!
1"
0#
1$
0%
1&
1'
1(
0:
19
0>
18
0;
17
1=
1A
10
0@
1<
1B
1C
1I
1H
1G
1F
0E
0B
0?
0C
1C
0K
0J
0I
0H
0G
0F
1-
1,
1+
1*
1)
1E
0/
0.
0-
0,
0+
0*
0)
#370000
1!
0"
1#
0$
1%
0&
0'
0(
1:
09
1>
08
1;
07
0=
0A
00
1@
0<
1B
0C
1I
1F
0B
1?
1C
0C
1K
1J
1H
1G
0E
1-
1*
0I
0H
0G
0F
1E
1/
1.
1,
1+
1)
0-
0,
0+
0*
0)
#380000
0!
1"
0#
1$
0%
1&
1'
1(
0:
19
0>
18
0;
17
1=
1A
10
0@
1<
1B
1C
1I
1H
1G
1F
0E
0B
0?
0C
1C
0K
0J
0I
0H
0G
0F
1-
1,
1+
1*
1)
1E
0/
0.
0-
0,
0+
0*
0)
#390000
1!
0"
1#
0$
1%
0&
0'
0(
1:
09
1>
08
1;
07
0=
0A
00
1@
0<
1B
0C
1I
1F
0B
1?
1C
0C
1K
1J
1H
1G
0E
1-
1*
0I
0H
0G
0F
1E
1/
1.
1,
1+
1)
0-
0,
0+
0*
0)
#400000
0!
1"
0#
1$
0%
1&
1'
1(
0:
19
0>
18
0;
17
1=
1A
10
0@
1<
1B
1C
1I
1H
1G
1F
0E
0B
0?
0C
1C
0K
0J
0I
0H
0G
0F
1-
1,
1+
1*
1)
1E
0/
0.
0-
0,
0+
0*
0)
#410000
1!
0"
1#
0$
1%
0&
0'
0(
1:
09
1>
08
1;
07
0=
0A
00
1@
0<
1B
0C
1I
1F
0B
1?
1C
0C
1K
1J
1H
1G
0E
1-
1*
0I
0H
0G
0F
1E
1/
1.
1,
1+
1)
0-
0,
0+
0*
0)
#420000
0!
1"
0#
1$
0%
1&
1'
1(
0:
19
0>
18
0;
17
1=
1A
10
0@
1<
1B
1C
1I
1H
1G
1F
0E
0B
0?
0C
1C
0K
0J
0I
0H
0G
0F
1-
1,
1+
1*
1)
1E
0/
0.
0-
0,
0+
0*
0)
#430000
1!
0"
1#
0$
1%
0&
0'
0(
1:
09
1>
08
1;
07
0=
0A
00
1@
0<
1B
0C
1I
1F
0B
1?
1C
0C
1K
1J
1H
1G
0E
1-
1*
0I
0H
0G
0F
1E
1/
1.
1,
1+
1)
0-
0,
0+
0*
0)
#440000
0!
1"
0#
1$
0%
1&
1'
1(
0:
19
0>
18
0;
17
1=
1A
10
0@
1<
1B
1C
1I
1H
1G
1F
0E
0B
0?
0C
1C
0K
0J
0I
0H
0G
0F
1-
1,
1+
1*
1)
1E
0/
0.
0-
0,
0+
0*
0)
#450000
1!
0"
1#
0$
1%
0&
0'
0(
1:
09
1>
08
1;
07
0=
0A
00
1@
0<
1B
0C
1I
1F
0B
1?
1C
0C
1K
1J
1H
1G
0E
1-
1*
0I
0H
0G
0F
1E
1/
1.
1,
1+
1)
0-
0,
0+
0*
0)
#460000
0!
1"
0#
1$
0%
1&
1'
1(
0:
19
0>
18
0;
17
1=
1A
10
0@
1<
1B
1C
1I
1H
1G
1F
0E
0B
0?
0C
1C
0K
0J
0I
0H
0G
0F
1-
1,
1+
1*
1)
1E
0/
0.
0-
0,
0+
0*
0)
#470000
1!
0"
1#
0$
1%
0&
0'
0(
1:
09
1>
08
1;
07
0=
0A
00
1@
0<
1B
0C
1I
1F
0B
1?
1C
0C
1K
1J
1H
1G
0E
1-
1*
0I
0H
0G
0F
1E
1/
1.
1,
1+
1)
0-
0,
0+
0*
0)
#480000
0!
1"
0#
1$
0%
1&
1'
1(
0:
19
0>
18
0;
17
1=
1A
10
0@
1<
1B
1C
1I
1H
1G
1F
0E
0B
0?
0C
1C
0K
0J
0I
0H
0G
0F
1-
1,
1+
1*
1)
1E
0/
0.
0-
0,
0+
0*
0)
#490000
1!
0"
1#
0$
1%
0&
0'
0(
1:
09
1>
08
1;
07
0=
0A
00
1@
0<
1B
0C
1I
1F
0B
1?
1C
0C
1K
1J
1H
1G
0E
1-
1*
0I
0H
0G
0F
1E
1/
1.
1,
1+
1)
0-
0,
0+
0*
0)
#500000
0!
1"
0#
1$
0%
1&
1'
1(
0:
19
0>
18
0;
17
1=
1A
10
0@
1<
1B
1C
1I
1H
1G
1F
0E
0B
0?
0C
1C
0K
0J
0I
0H
0G
0F
1-
1,
1+
1*
1)
1E
0/
0.
0-
0,
0+
0*
0)
#510000
1!
0"
1#
0$
1%
0&
0'
0(
1:
09
1>
08
1;
07
0=
0A
00
1@
0<
1B
0C
1I
1F
0B
1?
1C
0C
1K
1J
1H
1G
0E
1-
1*
0I
0H
0G
0F
1E
1/
1.
1,
1+
1)
0-
0,
0+
0*
0)
#520000
0!
1"
0#
1$
0%
1&
1'
1(
0:
19
0>
18
0;
17
1=
1A
10
0@
1<
1B
1C
1I
1H
1G
1F
0E
0B
0?
0C
1C
0K
0J
0I
0H
0G
0F
1-
1,
1+
1*
1)
1E
0/
0.
0-
0,
0+
0*
0)
#530000
1!
0"
1#
0$
1%
0&
0'
0(
1:
09
1>
08
1;
07
0=
0A
00
1@
0<
1B
0C
1I
1F
0B
1?
1C
0C
1K
1J
1H
1G
0E
1-
1*
0I
0H
0G
0F
1E
1/
1.
1,
1+
1)
0-
0,
0+
0*
0)
#540000
0!
1"
0#
1$
0%
1&
1'
1(
0:
19
0>
18
0;
17
1=
1A
10
0@
1<
1B
1C
1I
1H
1G
1F
0E
0B
0?
0C
1C
0K
0J
0I
0H
0G
0F
1-
1,
1+
1*
1)
1E
0/
0.
0-
0,
0+
0*
0)
#550000
1!
0"
1#
0$
1%
0&
0'
0(
1:
09
1>
08
1;
07
0=
0A
00
1@
0<
1B
0C
1I
1F
0B
1?
1C
0C
1K
1J
1H
1G
0E
1-
1*
0I
0H
0G
0F
1E
1/
1.
1,
1+
1)
0-
0,
0+
0*
0)
#560000
0!
1"
0#
1$
0%
1&
1'
1(
0:
19
0>
18
0;
17
1=
1A
10
0@
1<
1B
1C
1I
1H
1G
1F
0E
0B
0?
0C
1C
0K
0J
0I
0H
0G
0F
1-
1,
1+
1*
1)
1E
0/
0.
0-
0,
0+
0*
0)
#570000
1!
0"
1#
0$
1%
0&
0'
0(
1:
09
1>
08
1;
07
0=
0A
00
1@
0<
1B
0C
1I
1F
0B
1?
1C
0C
1K
1J
1H
1G
0E
1-
1*
0I
0H
0G
0F
1E
1/
1.
1,
1+
1)
0-
0,
0+
0*
0)
#580000
0!
1"
0#
1$
0%
1&
1'
1(
0:
19
0>
18
0;
17
1=
1A
10
0@
1<
1B
1C
1I
1H
1G
1F
0E
0B
0?
0C
1C
0K
0J
0I
0H
0G
0F
1-
1,
1+
1*
1)
1E
0/
0.
0-
0,
0+
0*
0)
#590000
1!
0"
1#
0$
1%
0&
0'
0(
1:
09
1>
08
1;
07
0=
0A
00
1@
0<
1B
0C
1I
1F
0B
1?
1C
0C
1K
1J
1H
1G
0E
1-
1*
0I
0H
0G
0F
1E
1/
1.
1,
1+
1)
0-
0,
0+
0*
0)
#600000
0!
1"
0#
1$
0%
1&
1'
1(
0:
19
0>
18
0;
17
1=
1A
10
0@
1<
1B
1C
1I
1H
1G
1F
0E
0B
0?
0C
1C
0K
0J
0I
0H
0G
0F
1-
1,
1+
1*
1)
1E
0/
0.
0-
0,
0+
0*
0)
#610000
1!
0"
1#
0$
1%
0&
0'
0(
1:
09
1>
08
1;
07
0=
0A
00
1@
0<
1B
0C
1I
1F
0B
1?
1C
0C
1K
1J
1H
1G
0E
1-
1*
0I
0H
0G
0F
1E
1/
1.
1,
1+
1)
0-
0,
0+
0*
0)
#620000
0!
1"
0#
1$
0%
1&
1'
1(
0:
19
0>
18
0;
17
1=
1A
10
0@
1<
1B
1C
1I
1H
1G
1F
0E
0B
0?
0C
1C
0K
0J
0I
0H
0G
0F
1-
1,
1+
1*
1)
1E
0/
0.
0-
0,
0+
0*
0)
#630000
1!
0"
1#
0$
1%
0&
0'
0(
1:
09
1>
08
1;
07
0=
0A
00
1@
0<
1B
0C
1I
1F
0B
1?
1C
0C
1K
1J
1H
1G
0E
1-
1*
0I
0H
0G
0F
1E
1/
1.
1,
1+
1)
0-
0,
0+
0*
0)
#640000
0!
1"
0#
1$
0%
1&
1'
1(
0:
19
0>
18
0;
17
1=
1A
10
0@
1<
1B
1C
1I
1H
1G
1F
0E
0B
0?
0C
1C
0K
0J
0I
0H
0G
0F
1-
1,
1+
1*
1)
1E
0/
0.
0-
0,
0+
0*
0)
#650000
1!
0"
1#
0$
1%
0&
0'
0(
1:
09
1>
08
1;
07
0=
0A
00
1@
0<
1B
0C
1I
1F
0B
1?
1C
0C
1K
1J
1H
1G
0E
1-
1*
0I
0H
0G
0F
1E
1/
1.
1,
1+
1)
0-
0,
0+
0*
0)
#660000
0!
1"
0#
1$
0%
1&
1'
1(
0:
19
0>
18
0;
17
1=
1A
10
0@
1<
1B
1C
1I
1H
1G
1F
0E
0B
0?
0C
1C
0K
0J
0I
0H
0G
0F
1-
1,
1+
1*
1)
1E
0/
0.
0-
0,
0+
0*
0)
#670000
1!
0"
1#
0$
1%
0&
0'
0(
1:
09
1>
08
1;
07
0=
0A
00
1@
0<
1B
0C
1I
1F
0B
1?
1C
0C
1K
1J
1H
1G
0E
1-
1*
0I
0H
0G
0F
1E
1/
1.
1,
1+
1)
0-
0,
0+
0*
0)
#680000
0!
1"
0#
1$
0%
1&
1'
1(
0:
19
0>
18
0;
17
1=
1A
10
0@
1<
1B
1C
1I
1H
1G
1F
0E
0B
0?
0C
1C
0K
0J
0I
0H
0G
0F
1-
1,
1+
1*
1)
1E
0/
0.
0-
0,
0+
0*
0)
#690000
1!
0"
1#
0$
1%
0&
0'
0(
1:
09
1>
08
1;
07
0=
0A
00
1@
0<
1B
0C
1I
1F
0B
1?
1C
0C
1K
1J
1H
1G
0E
1-
1*
0I
0H
0G
0F
1E
1/
1.
1,
1+
1)
0-
0,
0+
0*
0)
#700000
0!
1"
0#
1$
0%
1&
1'
1(
0:
19
0>
18
0;
17
1=
1A
10
0@
1<
1B
1C
1I
1H
1G
1F
0E
0B
0?
0C
1C
0K
0J
0I
0H
0G
0F
1-
1,
1+
1*
1)
1E
0/
0.
0-
0,
0+
0*
0)
#710000
1!
0"
1#
0$
1%
0&
0'
0(
1:
09
1>
08
1;
07
0=
0A
00
1@
0<
1B
0C
1I
1F
0B
1?
1C
0C
1K
1J
1H
1G
0E
1-
1*
0I
0H
0G
0F
1E
1/
1.
1,
1+
1)
0-
0,
0+
0*
0)
#720000
0!
1"
0#
1$
0%
1&
1'
1(
0:
19
0>
18
0;
17
1=
1A
10
0@
1<
1B
1C
1I
1H
1G
1F
0E
0B
0?
0C
1C
0K
0J
0I
0H
0G
0F
1-
1,
1+
1*
1)
1E
0/
0.
0-
0,
0+
0*
0)
#730000
1!
0"
1#
0$
1%
0&
0'
0(
1:
09
1>
08
1;
07
0=
0A
00
1@
0<
1B
0C
1I
1F
0B
1?
1C
0C
1K
1J
1H
1G
0E
1-
1*
0I
0H
0G
0F
1E
1/
1.
1,
1+
1)
0-
0,
0+
0*
0)
#740000
0!
1"
0#
1$
0%
1&
1'
1(
0:
19
0>
18
0;
17
1=
1A
10
0@
1<
1B
1C
1I
1H
1G
1F
0E
0B
0?
0C
1C
0K
0J
0I
0H
0G
0F
1-
1,
1+
1*
1)
1E
0/
0.
0-
0,
0+
0*
0)
#750000
1!
0"
1#
0$
1%
0&
0'
0(
1:
09
1>
08
1;
07
0=
0A
00
1@
0<
1B
0C
1I
1F
0B
1?
1C
0C
1K
1J
1H
1G
0E
1-
1*
0I
0H
0G
0F
1E
1/
1.
1,
1+
1)
0-
0,
0+
0*
0)
#760000
0!
1"
0#
1$
0%
1&
1'
1(
0:
19
0>
18
0;
17
1=
1A
10
0@
1<
1B
1C
1I
1H
1G
1F
0E
0B
0?
0C
1C
0K
0J
0I
0H
0G
0F
1-
1,
1+
1*
1)
1E
0/
0.
0-
0,
0+
0*
0)
#770000
1!
0"
1#
0$
1%
0&
0'
0(
1:
09
1>
08
1;
07
0=
0A
00
1@
0<
1B
0C
1I
1F
0B
1?
1C
0C
1K
1J
1H
1G
0E
1-
1*
0I
0H
0G
0F
1E
1/
1.
1,
1+
1)
0-
0,
0+
0*
0)
#780000
0!
1"
0#
1$
0%
1&
1'
1(
0:
19
0>
18
0;
17
1=
1A
10
0@
1<
1B
1C
1I
1H
1G
1F
0E
0B
0?
0C
1C
0K
0J
0I
0H
0G
0F
1-
1,
1+
1*
1)
1E
0/
0.
0-
0,
0+
0*
0)
#790000
1!
0"
1#
0$
1%
0&
0'
0(
1:
09
1>
08
1;
07
0=
0A
00
1@
0<
1B
0C
1I
1F
0B
1?
1C
0C
1K
1J
1H
1G
0E
1-
1*
0I
0H
0G
0F
1E
1/
1.
1,
1+
1)
0-
0,
0+
0*
0)
#800000
0!
1"
0#
1$
0%
1&
1'
1(
0:
19
0>
18
0;
17
1=
1A
10
0@
1<
1B
1C
1I
1H
1G
1F
0E
0B
0?
0C
1C
0K
0J
0I
0H
0G
0F
1-
1,
1+
1*
1)
1E
0/
0.
0-
0,
0+
0*
0)
#810000
1!
0"
1#
0$
1%
0&
0'
0(
1:
09
1>
08
1;
07
0=
0A
00
1@
0<
1B
0C
1I
1F
0B
1?
1C
0C
1K
1J
1H
1G
0E
1-
1*
0I
0H
0G
0F
1E
1/
1.
1,
1+
1)
0-
0,
0+
0*
0)
#820000
0!
1"
0#
1$
0%
1&
1'
1(
0:
19
0>
18
0;
17
1=
1A
10
0@
1<
1B
1C
1I
1H
1G
1F
0E
0B
0?
0C
1C
0K
0J
0I
0H
0G
0F
1-
1,
1+
1*
1)
1E
0/
0.
0-
0,
0+
0*
0)
#830000
1!
0"
1#
0$
1%
0&
0'
0(
1:
09
1>
08
1;
07
0=
0A
00
1@
0<
1B
0C
1I
1F
0B
1?
1C
0C
1K
1J
1H
1G
0E
1-
1*
0I
0H
0G
0F
1E
1/
1.
1,
1+
1)
0-
0,
0+
0*
0)
#840000
0!
1"
0#
1$
0%
1&
1'
1(
0:
19
0>
18
0;
17
1=
1A
10
0@
1<
1B
1C
1I
1H
1G
1F
0E
0B
0?
0C
1C
0K
0J
0I
0H
0G
0F
1-
1,
1+
1*
1)
1E
0/
0.
0-
0,
0+
0*
0)
#850000
1!
0"
1#
0$
1%
0&
0'
0(
1:
09
1>
08
1;
07
0=
0A
00
1@
0<
1B
0C
1I
1F
0B
1?
1C
0C
1K
1J
1H
1G
0E
1-
1*
0I
0H
0G
0F
1E
1/
1.
1,
1+
1)
0-
0,
0+
0*
0)
#860000
0!
1"
0#
1$
0%
1&
1'
1(
0:
19
0>
18
0;
17
1=
1A
10
0@
1<
1B
1C
1I
1H
1G
1F
0E
0B
0?
0C
1C
0K
0J
0I
0H
0G
0F
1-
1,
1+
1*
1)
1E
0/
0.
0-
0,
0+
0*
0)
#870000
1!
0"
1#
0$
1%
0&
0'
0(
1:
09
1>
08
1;
07
0=
0A
00
1@
0<
1B
0C
1I
1F
0B
1?
1C
0C
1K
1J
1H
1G
0E
1-
1*
0I
0H
0G
0F
1E
1/
1.
1,
1+
1)
0-
0,
0+
0*
0)
#880000
0!
1"
0#
1$
0%
1&
1'
1(
0:
19
0>
18
0;
17
1=
1A
10
0@
1<
1B
1C
1I
1H
1G
1F
0E
0B
0?
0C
1C
0K
0J
0I
0H
0G
0F
1-
1,
1+
1*
1)
1E
0/
0.
0-
0,
0+
0*
0)
#890000
1!
0"
1#
0$
1%
0&
0'
0(
1:
09
1>
08
1;
07
0=
0A
00
1@
0<
1B
0C
1I
1F
0B
1?
1C
0C
1K
1J
1H
1G
0E
1-
1*
0I
0H
0G
0F
1E
1/
1.
1,
1+
1)
0-
0,
0+
0*
0)
#900000
0!
1"
0#
1$
0%
1&
1'
1(
0:
19
0>
18
0;
17
1=
1A
10
0@
1<
1B
1C
1I
1H
1G
1F
0E
0B
0?
0C
1C
0K
0J
0I
0H
0G
0F
1-
1,
1+
1*
1)
1E
0/
0.
0-
0,
0+
0*
0)
#910000
1!
0"
1#
0$
1%
0&
0'
0(
1:
09
1>
08
1;
07
0=
0A
00
1@
0<
1B
0C
1I
1F
0B
1?
1C
0C
1K
1J
1H
1G
0E
1-
1*
0I
0H
0G
0F
1E
1/
1.
1,
1+
1)
0-
0,
0+
0*
0)
#920000
0!
1"
0#
1$
0%
1&
1'
1(
0:
19
0>
18
0;
17
1=
1A
10
0@
1<
1B
1C
1I
1H
1G
1F
0E
0B
0?
0C
1C
0K
0J
0I
0H
0G
0F
1-
1,
1+
1*
1)
1E
0/
0.
0-
0,
0+
0*
0)
#930000
1!
0"
1#
0$
1%
0&
0'
0(
1:
09
1>
08
1;
07
0=
0A
00
1@
0<
1B
0C
1I
1F
0B
1?
1C
0C
1K
1J
1H
1G
0E
1-
1*
0I
0H
0G
0F
1E
1/
1.
1,
1+
1)
0-
0,
0+
0*
0)
#940000
0!
1"
0#
1$
0%
1&
1'
1(
0:
19
0>
18
0;
17
1=
1A
10
0@
1<
1B
1C
1I
1H
1G
1F
0E
0B
0?
0C
1C
0K
0J
0I
0H
0G
0F
1-
1,
1+
1*
1)
1E
0/
0.
0-
0,
0+
0*
0)
