display/simulation/qsim/aaa.msim.vcd
$comment
	File created using the following command:
		vcd file aaa.msim.vcd -direction
$end
$date
	Wed Jun 03 22:32:51 2020
$end
$version
	ModelSim Version 10.1d
$end
$timescale
	1ps
$end
$scope module aaa_vlg_vec_tst $end
$var reg 4 ! bcd [3:0] $end
$var wire 1 " leds [1] $end
$var wire 1 # leds [2] $end
$var wire 1 $ leds [3] $end
$var wire 1 % leds [4] $end
$var wire 1 & leds [5] $end
$var wire 1 ' leds [6] $end
$var wire 1 ( leds [7] $end
$var wire 1 ) sampler $end
$scope module i1 $end
$var wire 1 * gnd $end
$var wire 1 + vcc $end
$var wire 1 , unknown $end
$var tri1 1 - devclrn $end
$var tri1 1 . devpor $end
$var tri1 1 / devoe $end
$var wire 1 0 Mux6~0_combout $end
$var wire 1 1 Mux5~0_combout $end
$var wire 1 2 Mux4~0_combout $end
$var wire 1 3 Mux3~0_combout $end
$var wire 1 4 Mux2~0_combout $end
$var wire 1 5 Mux1~0_combout $end
$var wire 1 6 Mux0~0_combout $end
$var wire 1 7 bcd~combout [3] $end
$var wire 1 8 bcd~combout [2] $end
$var wire 1 9 bcd~combout [1] $end
$var wire 1 : bcd~combout [0] $end
$upscope $end
$upscope $end
$enddefinitions $end
#0
$dumpvars
b101 !
0(
0'
1&
0%
0$
1#
0"
x)
0*
1+
x,
1-
1.
1/
10
01
12
03
04
15
06
1:
09
18
07
$end
#10000
b100 !
b110 !
0:
19
0)
16
02
1"
0&
#20000
b111 !
b101 !
1:
09
1)
06
12
0"
1&
#30000
b100 !
b110 !
0:
19
0)
16
02
1"
0&
#40000
b111 !
b101 !
1:
09
1)
06
12
0"
1&
#50000
b100 !
b110 !
0:
19
0)
16
02
1"
0&
#60000
b111 !
b101 !
1:
09
1)
06
12
0"
1&
#70000
b100 !
b110 !
0:
19
0)
16
02
1"
0&
#80000
b111 !
b101 !
1:
09
1)
06
12
0"
1&
#90000
b100 !
b110 !
0:
19
0)
16
02
1"
0&
#100000
b111 !
b101 !
1:
09
1)
06
12
0"
1&
#110000
b100 !
b110 !
0:
19
0)
16
02
1"
0&
#120000
b111 !
b101 !
1:
09
1)
06
12
0"
1&
#130000
b100 !
b110 !
0:
19
0)
16
02
1"
0&
#140000
b111 !
b101 !
1:
09
1)
06
12
0"
1&
#150000
b100 !
b110 !
0:
19
0)
16
02
1"
0&
#160000
b111 !
b101 !
1:
09
1)
06
12
0"
1&
#170000
b100 !
b110 !
0:
19
0)
16
02
1"
0&
#180000
b111 !
b101 !
1:
09
1)
06
12
0"
1&
#190000
b100 !
b110 !
0:
19
0)
16
02
1"
0&
#200000
b111 !
b101 !
1:
09
1)
06
12
0"
1&
#210000
b100 !
b110 !
0:
19
0)
16
02
1"
0&
#220000
b111 !
b101 !
1:
09
1)
06
12
0"
1&
#230000
b100 !
b110 !
0:
19
0)
16
02
1"
0&
#240000
b111 !
b101 !
1:
09
1)
06
12
0"
1&
#250000
b100 !
b110 !
0:
19
0)
16
02
1"
0&
#260000
b111 !
b101 !
1:
09
1)
06
12
0"
1&
#270000
b100 !
b110 !
0:
19
0)
16
02
1"
0&
#280000
b111 !
b101 !
1:
09
1)
06
12
0"
1&
#290000
b100 !
b110 !
0:
19
0)
16
02
1"
0&
#300000
b111 !
b101 !
1:
09
1)
06
12
0"
1&
#310000
b100 !
b110 !
0:
19
0)
16
02
1"
0&
#320000
b111 !
b101 !
1:
09
1)
06
12
0"
1&
#330000
b100 !
b110 !
0:
19
0)
16
02
1"
0&
#340000
b111 !
b101 !
1:
09
1)
06
12
0"
1&
#350000
b100 !
b110 !
0:
19
0)
16
02
1"
0&
#360000
b111 !
b101 !
1:
09
1)
06
12
0"
1&
#370000
b100 !
b110 !
0:
19
0)
16
02
1"
0&
#380000
b111 !
b101 !
1:
09
1)
06
12
0"
1&
#390000
b100 !
b110 !
0:
19
0)
16
02
1"
0&
#400000
b111 !
b101 !
1:
09
1)
06
12
0"
1&
#410000
b100 !
b110 !
0:
19
0)
16
02
1"
0&
#420000
b111 !
b101 !
1:
09
1)
06
12
0"
1&
#430000
b100 !
b110 !
0:
19
0)
16
02
1"
0&
#440000
b111 !
b101 !
1:
09
1)
06
12
0"
1&
#450000
b100 !
b110 !
0:
19
0)
16
02
1"
0&
#460000
b111 !
b101 !
1:
09
1)
06
12
0"
1&
#470000
b100 !
b110 !
0:
19
0)
16
02
1"
0&
#480000
b111 !
b101 !
1:
09
1)
06
12
0"
1&
#490000
b100 !
b110 !
0:
19
0)
16
02
1"
0&
#500000
b111 !
b101 !
1:
09
1)
06
12
0"
1&
#510000
b100 !
b110 !
0:
19
0)
16
02
1"
0&
#520000
b111 !
b101 !
1:
09
1)
06
12
0"
1&
#530000
b100 !
b110 !
0:
19
0)
16
02
1"
0&
#540000
b111 !
b101 !
1:
09
1)
06
12
0"
1&
#550000
b100 !
b110 !
0:
19
0)
16
02
1"
0&
#560000
b111 !
b101 !
1:
09
1)
06
12
0"
1&
#570000
b100 !
b110 !
0:
19
0)
16
02
1"
0&
#580000
b111 !
b101 !
1:
09
1)
06
12
0"
1&
#590000
b100 !
b110 !
0:
19
0)
16
02
1"
0&
#600000
b111 !
b101 !
1:
09
1)
06
12
0"
1&
#610000
b100 !
b110 !
0:
19
0)
16
02
1"
0&
#620000
b111 !
b101 !
1:
09
1)
06
12
0"
1&
#630000
b100 !
b110 !
0:
19
0)
16
02
1"
0&
#640000
b111 !
b101 !
1:
09
1)
06
12
0"
1&
#650000
b100 !
b110 !
0:
19
0)
16
02
1"
0&
#660000
b111 !
b101 !
1:
09
1)
06
12
0"
1&
#670000
b100 !
b110 !
0:
19
0)
16
02
1"
0&
#680000
b111 !
b101 !
1:
09
1)
06
12
0"
1&
#690000
b100 !
b110 !
0:
19
0)
16
02
1"
0&
#700000
b111 !
b101 !
1:
09
1)
06
12
0"
1&
#710000
b100 !
b110 !
0:
19
0)
16
02
1"
0&
#720000
b111 !
b101 !
1:
09
1)
06
12
0"
1&
#730000
b100 !
b110 !
0:
19
0)
16
02
1"
0&
#740000
b111 !
b101 !
1:
09
1)
06
12
0"
1&
#750000
b100 !
b110 !
0:
19
0)
16
02
1"
0&
#760000
b111 !
b101 !
1:
09
1)
06
12
0"
1&
#770000
b100 !
b110 !
0:
19
0)
16
02
1"
0&
#780000
b111 !
b101 !
1:
09
1)
06
12
0"
1&
#790000
b100 !
b110 !
0:
19
0)
16
02
1"
0&
#800000
b111 !
b101 !
1:
09
1)
06
12
0"
1&
#810000
b100 !
b110 !
0:
19
0)
16
02
1"
0&
#820000
b111 !
b101 !
1:
09
1)
06
12
0"
1&
#830000
b100 !
b110 !
0:
19
0)
16
02
1"
0&
#840000
b111 !
b101 !
1:
09
1)
06
12
0"
1&
#850000
b100 !
b110 !
0:
19
0)
16
02
1"
0&
#860000
b111 !
b101 !
1:
09
1)
06
12
0"
1&
#870000
b100 !
b110 !
0:
19
0)
16
02
1"
0&
#880000
b111 !
b101 !
1:
09
1)
06
12
0"
1&
#890000
b100 !
b110 !
0:
19
0)
16
02
1"
0&
#900000
b111 !
b101 !
1:
09
1)
06
12
0"
1&
#910000
b100 !
b110 !
0:
19
0)
16
02
1"
0&
#920000
b111 !
b101 !
1:
09
1)
06
12
0"
1&
#930000
b100 !
b110 !
0:
19
0)
16
02
1"
0&
#940000
b111 !
b101 !
1:
09
1)
06
12
0"
1&
#950000
b100 !
b110 !
0:
19
0)
16
02
1"
0&
#960000
b111 !
b101 !
1:
09
1)
06
12
0"
1&
#970000
b100 !
b110 !
0:
19
0)
16
02
1"
0&
#980000
b111 !
b101 !
1:
09
1)
06
12
0"
1&
#990000
b100 !
b110 !
0:
19
0)
16
02
1"
0&
